Capacitación en R
…
# Transformación de datos (2)

## Agrupación de unidades

```r
# Ejemplo: utilizando la base guaguas, obtener el nombre más repetido por año.
guaguas %>%   ## La base de datos
  arrange(desc(n)) %>%  ## Ordenamos la base de mayor a menor
    group_by(anio) %>%  ## Agrupamos por año
     slice(1) %>% ## Dentro de cada año, tomamos el primer registro
  arrange(desc(anio)) ## El resultado se ordena desde el año más reciente.
```

```
## # A tibble: 100 x 5
## # Groups:   anio [100]
##     anio sexo  nombre       n proporcion
##    <dbl> <chr> <chr>    <int>      <dbl>
##  1  2019 M     Mateo     4152     0.0183
##  2  2018 M     Mateo     4468     0.0185
##  3  2017 M     Mateo     4736     0.0199
##  4  2016 M     Agustín   4300     0.0174
##  5  2015 M     Agustín   5355     0.0206
##  6  2014 M     Agustín   5903     0.0222
##  7  2013 M     Agustín   6518     0.0255
##  8  2012 M     Agustín   6346     0.0250
##  9  2011 M     Benjamín  5471     0.0212
## 10  2010 M     Benjamín  6021     0.0229
## # ... with 90 more rows
```
…
